6       6       32      2       ENG     JAP
1       EN      Legal Earned Surplus
1       JA      v¡¡à
2       EN      Dividends
2       JA      zà
3       EN      Directors' Bonus
3       JA      ¡¡¡¡¡¡^à
4       EN      Volantary Earn.Srpls.
4       JA      C¡¡¡¡¸æà
5       EN      Taxes
5       JA      ö¸à
6       EN      Other Appropriation
6       JA      ¡¡àùµ¯vª
7       EN      Other Reserve
7       JA      ¡¡àùÖÄ¡¡à
8       EN      Appr. of Ret.Earn.
8       JA      ¡¡]¡¡ÕÓz
9       EN      Decrease of Ret.Earn.
9       JA      ¡¡àùæ¿¡¡¡¡]¡¡ÖÃò³
10      EN      Decrease by Cnsli.Policy Change
10      JA      AöÜÜæ¡¡X¡¡¡¡á®ÖÃò³
