6       6       16      3       ENG     ESP     POR
1       EN      low
1       SP      bajas
1       PO      bajas
2       EN      medium
2       SP      medias
2       PO      medias
3       EN      high
3       SP      altas
3       PO      altas
4       EN      low-medium
4       SP      bajas-medias
4       PO      bajas-medias
5       EN      low-high
5       SP      bajas-altas
5       PO      bajas-altas
6       EN      medium-high
6       SP      medias-altas
6       PO      medias-altas
7       EN      regular
7       SP      regulares
7       PO      regulares
