6       6      64      3       ENG     ESP     POR
1       EN      plans to reactivate
1       SP      planea reactivarse
1       SP      planea reactivarse
2       EN      does not plan to reactivate
2       SP      no planea reactivarse
2       SP      no planea reactivarse
