6       6       64      2       ENG   CHI
1      EN      Due to Parent
1      CH      母公司往来
2      EN      Due to Subsidiaries
2      CH      子公司往来
3      EN      Due to Directors
3      CH      董事往来
4      EN      Due to Shareholders
4      CH      股东往来
5      EN      Due to Related Companies
5      CH      关联企业往来
6      EN      Others
6      CH      其他
