6       6       32      2       ENG     CHI
2       EN      university
2       CH      大学
4       EN      technical college
4       CH      技术学院
5       EN      vocational school
5       CH      职校
6       EN      high school
6       CH      高中
j1      EN      junior high school
j1      CH      国中
j2      EN      college
j2      CH      大专
j3      EN      graduate school
j3      CH      研究所
j4      EN      elementary school
j4      CH      小学
j5      EN      others
j5      CH      其它
j6      EN      unknown
j6      CH      不知道
1       EN      primary school
1       CH      小学
3       EN      senior high school
3       CH      高中
7       EN      junior college
7       CH      专科
