6       6       256     3       ENG     ESP     POR
1       EN      classified locally as an exempt non resident company
1       SP      clasificada localmente como una empresa no residente y exenta
1       PO      clasificada localmente como una empresa no residente y exenta
