6       6       32      3       ENG     ESP     POR
1       EN      Old established business
1       SP      Empresa antigua
1       PO      Empresa antigua
2       EN      Recently established business
2       SP      Empresa recien fundada
2       PO      Empresa recien fundada
3       EN      Business in process of forming
3       SP      Empresa en proceso de formación
3       PO      Empresa en proceso de formación
