6       6       64      3       ENG     ESP     POR
F1      EN      Born in
F1      SP      Nacida
F1      PO      Nacida
F2      EN      Born in approximately
F2      SP      Nacida alrededor de
F2      PO      Nacida alrededor de
M1      EN      Born in
M1      SP      Nacido
M1      PO      Nacido
M2      EN      Born in approximately
M2      SP      Nacido alrededor de
M2      PO      Nacido alrededor de
