6 6 32 1 ENG
Name  1 Managers
Scr1  1 1/2  Manager Information
ac    1 Update Date
an    1 Title
ag    1 Surname
af    1 Given Name
AG    1 Surname (Chi)
AF    1 Given Name (Chi)
na    1 Nationality
ra    1 Active Day to Day?
rb    1 CEO?
ja    1 Background
JA    1 Background (Chi)
Scr2  1 2/2  Summary
jb    1 Comment
jc    1 Comment
jd    1 Comment
JB    1 Comment (Chi)
JC    1 Comment (Chi)
JD    1 Comment (Chi)

