9       6       100      1       JAP
1     jp     社歴が不完全（株主/責任者に関する情報が不完全）
2     jp     当社と連絡が取れませんでした。その事業内容について不明です（SICコードは9999)
3     jp     最近の年次財務諸表を入手することができませんでした
4     jp     当社は如何なる情報の提供を拒否したので、その業種について不明です（SICコードは9999）
5     jp     正味有形資産はマイナスです
6     jp     財務危機にあります
7     jp     一時休業で、半年内に再営業する予定です
8     jp     登録を抹消しています
9     jp     当社と連絡が取れませんでした
10    jp     登録資本金に関する情報を入手することができませんでした
11    jp     役員の経歴に問題あり（役員は事業の失敗や犯罪歴を持っています）
12    jp     当社は事業上問題あり（過去2年に訴訟記録あり）
13    jp     一時休業
14    jp     従業員数の情報が欠落しています
15    jp     設立年に関する情報を入手することができませんでした
16    jp     企業形態に関する情報を入手することができませんでした
17    jp     破産清算手続中