9       6       48      1       JAP
1       JA      現金
2       JA      掛買い
3       JA      先付け小切手
4       JA      信用状
5       JA      ユーザンスビル
6       JA      T/T
7       JA      手形支払書類渡し
8       JA      手形引受書類渡し	
9       JA      一覧払い信用状	
10      JA      合意書/契約に基づく	
11      JA      信用状及びT/T	
12      JA      手形引受書類渡し及び手形支払書類渡し	
13      JA      委託物	
14      JA	取引銀行
15      JA      前払い	
16      JA      クレジットカード	
17      JA      分割払い	
18      JA	顧客と検討の上決める
19      JA      T/T、手形引受書類渡し及び手形支払書類渡し	
20      JA      T/T及び手形引受書類渡し	
21      JA      その他	
22      JA      現金及びT/T	
23      JA      Open account	
24      JA      信用状及び手形引受書類渡し
25      JA      信用状及び手形支払書類渡し
26      JA      分割払い
27      JA      一部前払い
28      JA      現金及び信用状
29      JA      現金及びクレジットカード
30      JA      リース
31      JA      T/T及び手形支払書類渡し
32      JA      信用状、手形引受書類渡し及び手形支払書類渡し
33      JA      一部支払
34      JA      完工時支払
35      JA      小切手
36      JA      Draft
37      JA      小切手
38      JA      月末支払
