6       6       16      4       ENG     ESP     POR     JAP
1       EN      ordinary
1       SP      ordinarias
1       PO      ordinarias
1       JA      ordinary
2       EN      preferred
2       SP      preferentes
2       PO      preferentes
2       JA      preferred
