6  6  30  2   ENG   CHI
I          ENG        INCOME
I          CHI        收入
B          ENG        BILLINGS
B          CHI        应收帐款
C          ENG        COMMISSIONS
C          CHI        佣金
R          ENG        REVENUE
R          CHI        营业收入
S          ENG        SALES
S          CHI        销货收入
