9       6       400     2       JAP
1       JA      財務情報、本報告書の業務状況及び経歴を確認しました
2       JA      一部の運営情報
3       JA      完全な財務諸表、本報告書に記載の業務状況及び社歴情報を確認しました
4       JA      本報告書の財務、業務状況及び経歴に関する情報
5       JA      本報告書の一部の業務状況、その他情報の提供を拒否しました
6       JA      すべての情報
7       JA      財務情報、本報告書に記載の一部の業務状況及び社歴情報を確認しました
8       JA      本報告書の業務状況及び経歴に関する情報
9       JA      本報告書のすべての情報
10      JA      財務情報、本報告書の業務状況及び経歴に関する情報を確認しました
11      JA      本報告書の一部の業務状況、その他情報の提供を拒否しました
12      JA      完全な財務諸表、本報告書の一部の財務情報及び業務状況と経歴を確認しました
13      JA      一部の経歴、その他情報の提供を拒否しました
14      JA      一部の業務状況及び経歴、その他情報の提供を拒否しました
15      JA      業務状況及び一部の経歴、その他情報の提供を拒否しました
16      JA      当社は実名での電話交換を実行しています

