6       6       64      3       ENG     ESP     POR
P1      EN      submitted
P1      SP      facilitaron
P1      PO      facilitaron
P2      EN      referred to
P2      SP      remitieron
P2      PO      remitieron
