6       6       64      3       ENG     ESP     POR
6     EN      6-Protectora de Credito Comercial
6     SP      6-Protectora de Credito Comercial
6     PO      6-Protectora de Credito Comercial
8     EN      8-Oscar E. Solera C.
8     SP      8-Oscar E. Solera C.
8     PO      8-Oscar E. Solera C.
10    EN      10-INFAES Cia. Ltda
10    SP      10-INFAES Cia. Ltda
10    PO      10-INFAES Cia. Ltda
11    EN      11-Maria D. de Calle
11    SP      11-Maria D. de Calle
11    PO      11-Maria D. de Calle
12    EN      12-Centro de Estudios y Datos (Cedatos)
12    SP      12-Centro de Estudios y Datos (Cedatos)
12    PO      12-Centro de Estudios y Datos (Cedatos)
15    EN      15-Marjorie E. Maynard
15    SP      15-Marjorie E. Maynard
15    PO      15-Marjorie E. Maynard
17    EN      17-Jaime Gurdian de N.
17    SP      17-Jaime Gurdian de N.
17    PO      17-Jaime Gurdian de N.
19    EN      19-Honducredit
19    SP      19-Honducredit
19    PO      19-Honducredit
22    EN      22-Andres F Archibold
22    SP      22-Andres F Archibold
22    PO      22-Andres F Archibold
24    EN      24-Business Information Services
24    SP      24-Business Information Services
24    PO      24-Business Information Services
29    EN      29-Credit Information Bureau
29    SP      29-Credit Information Bureau
29    PO      29-Credit Information Bureau
67    EN      67-Bermuda Credit Association
67    SP      67-Bermuda Credit Association
67    PO      67-Bermuda Credit Association
71    EN      71-Henriquez, Croes & Co
71    SP      71-Henriquez, Croes & Co
71    PO      71-Henriquez, Croes & Co
88    EN      88-Delisle Walwyn & Co., Ltd
88    SP      88-Delisle Walwyn & Co., Ltd
88    PO      88-Delisle Walwyn & Co., Ltd
93    EN      93-General Credit Trinidad
93    SP      93-General Credit Trinidad
93    PO      93-General Credit Trinidad
100   EN      100-ICP Ltd
100   SP      100-ICP Ltd
100   PO      100-ICP Ltd
105   EN      105-Valentine N. Roach
105   SP      105-Valentine N. Roach
105   PO      105-Valentine N. Roach
116   EN      116-Gerald Manuel
116   SP      116-Gerald Manuel
116   PO      116-Gerald Manuel
121   EN      121-Hermes de Centroamerica SA de CV
121   SP      121-Hermes de Centroamerica SA de CV
121   PO      121-Hermes de Centroamerica SA de CV
151   EN      151-Thomas M. Sauders
151   SP      151-Thomas M. Sauders
151   PO      151-Thomas M. Sauders
177   EN      177-Acosta, Moronta & Asoc.
177   SP      177-Acosta, Moronta & Asoc.
177   PO      177-Acosta, Moronta & Asoc.
233   EN      233-Vantage Consulting Group, Inc
233   SP      233-Vantage Consulting Group, Inc
233   PO      233-Vantage Consulting Group, Inc
243   EN      243-Byington Colombia, S.A.
243   SP      243-Byington Colombia, S.A.
243   PO      243-Byington Colombia, S.A.
272   EN      272-Carlos A. Saavedra C.
272   SP      272-Carlos A. Saavedra C.
272   PO      272-Carlos A. Saavedra C.
278   EN      278-Miquel Apt B.
278   SP      278-Miquel Apt B.
278   PO      278-Miquel Apt B.
325   EN      325-Credit Consultant (Jamaica) Ltd.
325   SP      325-Credit Consultant (Jamaica) Ltd.
325   PO      325-Credit Consultant (Jamaica) Ltd.
369   EN      369-Incoin
369   SP      369-Incoin
369   PO      369-Incoin
