6       6       64      1       ENG
1       EN      In Taiwan, businesses are legally registered only...
2       EN      The fact that we have been unable to locate subject's...
3       EN      Please therefore provide your local Dun & Bradstreet...
4       EN      Further details provided will help us furnish...
