6       6       64      3       ENG     ESP     POR     JAP
1       EN      sufficient
1       SP      suficiente
1       PO      suficiente
1       JA
2       EN      limited
2       SP      limitado
2       PO      limitado
1       JA
3       EN      negative
3       SP      negativo
3       PO      negativo
3       JA
