6       6       32      2       ENG     JAP
1       EN      Statement of Appropriation
1       JA      vฤญvZ
2       EN      Statement of Earned Surplus
2       JA      กก]กกฤญvZ
3       EN      Statement of Disposition of Deficit
3       JA      ฐฏกกvZ
