9     6    60  3  ENG   CHI   JAP
1     EN   The captioned one
1     CH   现名称
2     EN   Long-Term
2     CH   长期有效
2     CH   长期有效
3     EN   Annual Review Auto Extended
3     CH   每年年检自动延期
3     CH   每年年检自动延期
