6       6       64      3       ENG     ESP     POR
1       EN      approximately
1       SP      aproximadamente
1       PO      aproximadamente
2       EN      average
2       SP      en promedio
2       PO      en promedio
2       PO      en promedio
