6       6       32      1       ENG
1       EN      agent
2       EN      agents
3       EN      stewardesse
4       EN      stewardesses
5       EN      driver
6       EN      drivers
7       EN      doctor
8       EN      doctors
9       EN      principal
10      EN      principals
11      EN      non union employee
12      EN      non union employees
13      EN      union employee
14      EN      union employees
15      EN      nurse
16      EN      nurses
17      EN      trainer
18      EN      trainers
19      EN      engineer
20      EN      engineers
21      EN      installer
22      EN      installers
23      EN      teacher
24      EN      teachers
25      EN      blue collar worker
26      EN      blue collar workers
27      EN      field worker
28      EN      field workers
29      EN      plant worker
30      EN      plant workers
31      EN      office worker
32      EN      office workers
33      EN      pilot
34      EN      pilots
35      EN      steward
36      EN      stewards
37      EN      technical
38      EN      technicians
39      EN      salesperson
40      EN      salespersons
41      EN      other
42      EN      others
43      EN      executive
44      EN      executives
