6       6       64      3       ENG     ESP     POR
1       EN      occupying one building
1       SP      ocupando un edificio
1       PO      ocupando un edificio
2       EN      occupying
2       SP      ocupando
2       PO      ocupando
3       EN      located in a building complex of
3       SP      ocupando un complejo de
3       PO      ocupando un complejo de
3       PO      ocupando un complejo de
