6       6       64      3       ENG     ESP     POR
1       EN      A questionnaire
1       SP      Un cuestionario
1       PO      Un cuestionario
2       EN      A telegram
2       SP      Un telegrama
2       PO      Un telegrama
