6       6       64      1       ENG
800     EN       Office 800
835     EN       835-Caracas
836     EN       836-Maracaibo
716     EN       716-Japan
940     EN       940-Melbourne
941     EN       941-Sydney
942     EN       942-Brisbane
930     EN       930-Shanghai 
931     EN       931-Adelaide
932     EN       932-Perth
980     EN       980-Hong Kong
923     EN       923-Singapore
690     EN       690-New Zealand
735     EN       735-Taiwan
