9        6      30  2  ENG   CHI
0        EN     Management
0        CH     管理
1        EN     Operation
1        CH     经营
2        EN     Technology
2        CH     技术
3        EN     Finance&accounting
3        CH     财会
