6     6    60  2  ENG   CHI
1     EN   Single source - AIC 
1     CH   Single source - AIC
2     EN   Single source - STA 
2     CH   Single source - STA
3     EN   Mixed source S-A-A
3     CH   Mixed source S-A-A
4     EN   Mixed source S-A
4     CH   Mixed source S-A
5     EN   Mixed source S-S-A 
5     CH   Mixed source S-S-A 
 