6       6       64      1       ENG
1      EN      Due from Parent
2      EN      Due from Subsidiaries
3      EN      Due from directors
4      EN      Due from Shareholders
5      EN      Due from Related Companies
6      EN      Others
