6       6       32      1       ENG
1       EN      reserve under special law
2       EN      adjustment accounts
3       EN      reserve under article 86-insurance business law
4       EN      reserves for possible loan losses
5       EN      other reserves
6       EN      other liabilities
7       EN      acceptance & guarantees
8       EN      liabilities
