6       6       64      3       ENG     ESP     POR
1       EN      good
1       SP      buenas
1       PO      buenas
2       EN      normal
2       SP      normales
2       PO      normales
3       EN      difficult
3       SP      dificultosas
3       PO      dificultosas
3       PO      dificultosas
