6       6       32      1       JAP
1       JA      事務室
2       JA      工場
3       JA      倉庫
4       JA      展示場
5       JA      事務室及び工場
6       JA      事務室及び展示場
7       JA      事務室、工場及び展示場
8       JA      工場及び倉庫
9       JA      事務室及び倉庫
10      JA      ホテル
11      JA      事務室、工場及び倉庫
12      JA      登録所在地
13      JA      ブティック
14      JA      事務室、展示場及び倉庫
15      JA      スタジオ
16      JA      事務室及び保全センター	
17      JA      小売店	
18      JA      事務室、客室及びショッピングセンター	
19      JA	事務室及びレストラン
20      JA      農場	
21      JA      事務室、ホテル	
