6       6       64      3       ENG     ESP     POR
3       EN      Has Work Visa
3       SP      Posee visa de trabajo
3       PO      Posee visa de trabajo
F1      EN      Naturalized
F1      SP      Naturalizada
F1      PO      Naturalizada
M1      EN      Naturalized
M1      SP      Naturalizado
M1      PO      Naturalizado
M1      PO      Naturalizado
