6       6       64      2       ENG   CHI
1       EN      manufacturers
1       CH      制造业
2       EN      service companies
2       CH      服务业
3       EN      financial institutions
3       CH      金融业

