6     6     32      2       ENG    CHI
1     EN    1)Percentage of Slow Payment<=75%
1     CH    延迟付款不超过 75%
2     EN    2)Percentage of Slow Payment>75%
2     CH    延迟付款超过 75%
3     EN    3)Missing
3     CH    无资料
4     EN    4)Percentage of Slow Payment=0
4     CH    延迟付款为0
