6       6       32      3       ENG     ESP     POR
1       EN      under contract from
1       SP      a cargo de:
1       PO      a cargo de:
2       EN      under contract from 3rd parties
2       SP      a cargo de terceros
2       PO      a cargo de terceros
