6       6       64      3       ENG     ESP     POR
1       EN      EOM
1       SP      EOM
1       PO      EOM
2       EN      Prox
2       SP      Prox
2       PO      Prox
3       EN      Extra
3       SP      Extra
3       PO      Extra
3       PO      Extra
