6       6       64      3       ENG     ESP     POR
1       EN      owns
1       SP      posee
1       PO      posee
2       EN      rents
2       SP      alquila
2       PO      alquila
3       EN      leases
3       SP      arrienda
3       PO      arrienda
