6       6       64      4       ENG     ESP     POR     JAP
j1      EN      Chuo Trust & Banking
j1      JA      M””””s
j2      EN      Daiwa Bank
j2      JA      ””a””s
j3      EN      Dai-Ichi Kanqyo Bank 
j3      JA      ģŚ””Ä·÷µ””s
j4      EN      Fuji Bank
j4      JA      xm””s
j5      EN      Industrial Bank of Japan
j5      JA      ””{Ź“s””s
j6      EN      Kyowa Saitama Bank
j6      JA      Õ¬a””””””s
j7      EN      Long-Term Credit Bank of Japan
j7      JA      ””{°į””Mp””s
j8      EN      Mitsubishi Bank 
j8      JA      OH””s
j9      EN      Mitsubishi Trust & Banking
j9      JA      OHM””””s
j10     EN      Mitsui Bank
j10     JA      O””””s
j11     EN      Mitsui Trust & Banking
j11     JA      O””M””””s
j12     EN      Nippon Credit Bank
j12     JA      ””{ģ£Mp””s
j13     EN      Nippon Trust & Banking
j13     JA      ””{M””””s
j14     EN      Sanwa Bank
j14     JA      Oa””s
j15     EN      Sumitomo Bank
j15     JA      ZF””s
j16     EN      Sumitomo Trust & Banking
j16     JA      ZFM””””s
j17     EN      Tokai Bank
j17     JA      C””s
j18     EN      Bank of Tokyo
j18     JA      ””s
j19     EN      several other local banks
j19     JA      ””ąłį¦s
J20     EN      Sakura Bank
J20     JA      ””ÜŁ””””s
