6       6       64      4       ENG     ESP     POR     JAP
OOB     EN      Out of Business
OOB     SP      Out of Business
OOB     PO      Out of Business
OOB     JA      Out of Business
UTL     EN      Unable to Locate
UTL     SP      Unable to Locate
UTL     PO      Unable to Locate
UTL     JA      Unable to Locate
NCI     EN      Non Commercial Inquiry
NCI     SP      Non Commercial Inquiry
NCI     PO      Non Commercial Inquiry
NCI     JA      Non Commercial Inquiry
