9     6    60  2  ENG   CHI
1     EN   Strong growth
1     CH   Strong growth
2     EN   Moderate growth
2     CH   Moderate growth
3     EN   Flat growth  
3     CH   Flat growth
4     EN   Moderate decline  
4     CH   Moderate decline
5     EN   Sharp decline  
5     CH   Sharp decline
