6  6  10   2  ENG  CHI
1     EN    Jan
1     CH    一月
2     EN    Feb
2     CH    二月
3     EN    Mar
3     CH    三月
4     EN    Apr
4     CH    四月
5     EN    May
5     CH    五月
6     EN    Jun
6     CH    六月
7     EN    Jul
7     CH    七月
8     EN    Aug
8     CH    八月
9     EN    Sep
9     CH    九月
10    EN    Oct
10    CH    十月
11    EN    Nov
11    CH    十一月
12    EN    Dec
12    CH    十二月
0     EN      
0     CH      
