6       6       8      3       ENG     ESP     POR
1       EN      Asst
1       SP      Sub
1       PO      Sub
2       EN      1st
2       SP      1er.
2       PO      1er.
3       EN      2nd
3       SP      2do.
3       PO      2do.
4       EN      3rd
4       SP      3er.
4       PO      3er.
5       EN      4th
5       SP      4to.
5       PO      4to.
5       PO      4to.
