9        6      40  3   CHI ENG JAP
0        CH     负责人出差
0        EN     Business trip
0        JA     責任者が出張しました
1        CH     节假日期间
1        EN     On vacation
1        JA     休暇シーズンです
2        CH     无法联系
2        EN     Unable to contact
2        JA     連絡できませんでした