6       6       64      3       ENG     ESP     POR
1       EN      partial estimates
1       SP      cifras estimadas parciales
1       PO      cifras estimadas parciales
2       EN      fiscal figures
2       SP      cifras oficiales
2       PO      cifras oficiales
3       EN      interim figures
3       SP      cifras provisionales
3       PO      cifras provisionales
4       EN      summary figures
4       SP      las cifras mas destacadas
4       PO      las cifras mas destacadas
4       PO      las cifras mas destacadas
