9   6  40   1   ENG
HH    EN    HOLLY HUANG
JH    EN    Jerry Hu 
AH    EN    Alieen Huang 
AZ    EN    Amy Zhang
CZ    EN    Cassie Zhu 
EX    EN    Emma Xia 
FX    EN    Freda Xia 
JA    EN    Jane Zhang 
JJ    EN    Jennifer Ji 
JZ    EN    Jenny Zhou 
JL    EN    Jessie Liu 
NJ    EN    Nicole Jin 
PW    EN    Pamela Wang 
RF    EN    Rita Fang 
SW    EN    Sandy Wang 
JY    EN    Joy Yang 
JG    EN    Jessica Gu 
SS    EN    Sharon Sun 
TS    EN    Tracy Song
TF    EN    Teng Fei
CY    EN    Candy Ying
ZD    EN    Dolphin Zhu
LY    EN    Lily Yu 
CM    EN    Chen Minyue
YL    EN    Leslie Yan
HXYH  EN    Yang Hong Lei
HXWZF EN    Wang Zheng Feng
HXWH  EN    WangHua
Lour  EN    Rachel Lou
Zengv EN    Vikki Zeng
cuib  EN    Bismarck Cui
shas  EN    Shelley Sha
zhangs EN    Stephanie Zhang
chenh EN    Happy Chen
zhoa  EN    Amy Zhao
RQ    EN    LiuRQ
EgoXu EN    Ego Xu
Yao   EN    Jenny Yao
ChenA  EN    Angel Chen    
ChenS  EN    Sarah Chen    
Lickia EN    Lickia Zhang  
Leona  EN    Leona Zhu     
WuC    EN    Carol Wu      
GaoC   EN    Carol Gao     
AnnZ   EN    Ann Zhang     
WangH  EN    Harry Wang    
CharaZ EN    Chara Zhang   
FionaZ EN    Fiona Zhao    
ChrisZ EN    Chris Zhao    
SunY   EN    Yuki Sun      
WangJe EN    Jennie Wang   
YangDa EN    Dana Yang     
GuRain EN    Rain Gu       
Vivyng EN    Vivyng Gu     
MaVivi EN    Vivi Ma       
Aegean EN    Aegean Gu     
GraceG EN    Grace Guo     
ZitaG  EN    Zita Guan     
ChenI  EN    Ivy Chen      
ZhangJ EN    Joyce Zhang   
LiuCh  EN    Christine Liu 
RitaSh EN    Rita Sheng    
ZhaoSh EN    Sherry Zhao 
JingCa EN    Catherine Jing
Evelyn EN    Evelyn Zhuang 
SunSa  EN    Sara Sun   
KepoLi EN    Kepo Li
JohnSh EN    John Shao
Sherry EN    Sherry Zhang
YaoVi  EN    Vivian Yao
HuangF EN    Fion Huang
WeiT   EN    Wei Ting
LiF    EN    Li Feng
LIC    EN    Clarie Li
CHY    EN    Yoki Chen
XUP    EN    Peggy Xu
WEP    EN    Phyllis Wei
YUE    EN    Effie Yu
WAS    EN    Shein Wang
ZHJ    EN    Jusimine Zhang
LIV    EN    Vivian Li
YIC    EN    Candy Yin
HEY    EN    Yoyo He
ZEB    EN    Busy Zeng
LII    EN    Liang Jilin
CAL    EN    Lisa Cao
ZHYO   EN    Yolanda Zhang
ZHK    EN    Kaimi Zhang
SOD    EN    Dandan Song
LUC    EN    Chris Luan
CHENE  EN    Eva Chen
JIM    EN    Michelle Jin
SUV    EN    Vivian Sun
ZHSO   EN    Sophia Zhang
HUA    EN    Anna Huang
ZHP    EN    Polar Zhang
SHA    EN    Agyness Shen
CAM    EN    Maya Cai
YEG    EN    Gloria Ye
WSH    EN    Sherry Wang
SHD    EN    Amanda Shi
SHF    EN    Fefe Shen
JIP    EN    Pendy Jiang
CHEM   EN    Emily Chen
WAN    EN    Nicole Wang
CAS    EN    Starlin Cao
LIE    EN    Echo Liu
SHW    EN    Wendy Shen
XUJ    EN    Jasmine Xu
HZH    EN    Helen Zhang
SongS  EN    Susan Song
FEN    EN    Nicole Feng
LUT    EN    Tracy Lu
ZMI    EN    Miyuki Zhang
ZHR    EN    Regina Zhao
XUE    EN    Edith Xu
SHY    EN    Yoyo Shao
ZHF    EN    Freda Zheng
CHJ    EN    Jenmie Chen
YAS    EN    Sunny Yang
GUC    EN    Carol Gu
CHC    EN    Chery Chen
CHS    EN    Cherry Chen
ZHC    EN    Catherine Zhu
CCH    EN    Chitty Chen
ZLU    EN    Luna Zhang
XJA    EN    Jackiey Xu
WEW    EN    Waye Wei
WEJ    EN    Jack Wen
ZVI    EN    Vivien Zhang
SSA    EN    Sally Song
DOA    EN    Adi Dong
LUL    EN    Louie Lu
TAA    EN    Angela Tang
XIC    EN    Christ Xi
JIV    EN    Vicky Jiang
LIH    EN    Cheers Li
SHS    EN    Sally Shi
ZHST   EN    Stephanie Zhang
WAJ    EN    Joz Wang
WAA    EN    Anthony Wang
SHT    EN    Tony Shen
CCO    EN    Corrine Chen
WSA    EN    Sara Wang
HUM    EN    Miley Hu
INT1   EN    Intern1
INT2   EN    Intern2
INT3   EN    Intern3
INT4   EN    Intern4
INT5   EN    Intern5
INT6   EN    Intern6
INT7   EN    Intern7
INT8   EN    Intern8
INT9   EN    Intern9
INT10  EN    Intern10
ZSK    EN    Suki Zhang
LUA    EN    Allen Lu
LISAL  EN    Lisa Liu
MIAF   EN    Mia Fan
JSL    EN    Jessica Li
SDA    EN    Daisy Shi
CHL    EN    Lexie Chen
HUK    EN    Kokia Huang
ZWI    EN    Will Zhuo
JIE    EN    Eli Jia
SSU    EN    Summer Shen
WJO    EN    Joe Wang
GAA    EN    Amy Gao
ZHZ    EN    Zabulon Zhao
WEA    EN    Alex Weng
XIK    EN    Kovien Xie
MIM    EN    Mia  Mi
LLY    EN    Lynn Lin
CAA    EN    Andy Cao
FEE    EN    Elvn Feng
YS     EN    Yedda Shen