6       6       64      1       ENG
1       EN      Listed Company
2       EN      Literal Translation from Chinese
3       EN      English Name (Provided & Checked)
4       EN      English & Chinese Name (Provided & Checked)
5       EN      Major Trade & Business Directories Checked
